module gitlab.com/gitlab-org/gitaly/tools/gofumpt

go 1.19

require mvdan.cc/gofumpt v0.5.0

require (
	github.com/google/go-cmp v0.5.9 // indirect
	golang.org/x/mod v0.10.0 // indirect
	golang.org/x/sync v0.1.0 // indirect
	golang.org/x/tools v0.8.0 // indirect
)
